[
    {
        "id": "cr123",
        "step ": 1.0,
        "readings": [
            103.04983414952939,
            13.06129559147759,
            11.423143599058566,
            15.192366557718543,
            15.072889387425104,
            42.76854392198215,
            83.85545790646066,
            32.14083956177737,
            10.187591211868611,
            1.3436639679184346,
            7.632806716877543
        ],
        "timestamp": "2020-01-01T03:00:43"
    },
    {
        "id": "cr123",
        "step ": 1.0,
        "readings": [
            99.69839490632394,
            10.68126766367177,
            10.118187195143484,
            20.5691678609613,
            15.798400748093648,
            39.282692849921105,
            84.65902014155832,
            34.41588673322045,
            14.778356922079697,
            4.164346033235687,
            5.36245576754034
        ],
        "timestamp": "2020-01-01T03:33:21"
    },
    {
        "id": "cr123",
        "step ": 1.0,
        "readings": [
            95.36459839582815,
            9.678450110740755,
            17.81878273614188,
            11.899504244408122,
            24.789056908523534,
            37.003063408187295,
            77.23540784996338,
            31.73440179915699,
            12.677390314933401,
            0.574516666257983,
            0.7452195409546287
        ],
        "timestamp": "2020-01-01T22:38:17"
    },
    {
        "id": "cr123",
        "step ": 1.0,
        "readings": [
            103.22071105446705,
            10.840543422374072,
            11.574879870581002,
            12.786513937048458,
            15.180179393772528,
            57.47633263959171,
            103.95464384405952,
            28.64901937752481,
            9.278530338772015,
            7.7238836413119785,
            4.125991750196505
        ],
        "timestamp": "2020-01-01T23:12:35"
    },
    {
        "id": "cr123",
        "step ": 1.0,
        "readings": [
            103.90294409970436,
            10.417815171724847,
            13.818211710413836,
            14.064468294370592,
            30.63532032838708,
            43.92238382880628,
            91.22309760412993,
            28.95672785818418,
            14.860722693398586,
            7.650899074011171,
            3.579533530003003
        ],
        "timestamp": "2020-01-01T23:46:13"
    },
    {
        "id": "cr123",
        "step ": 1.0,
        "readings": [
            101.34377137631488,
            11.09337748846275,
            10.081397842716308,
            11.857459656481613,
            15.705834189964675,
            42.042036746245174,
            84.36973034844735,
            33.059108712540585,
            19.315130039149,
            4.317203848819147,
            5.191160082936262
        ],
        "timestamp": "2020-01-02T13:18:59"
    },
    {
        "id": "cr123",
        "step ": 1.0,
        "readings": [
            100.75987534252698,
            10.663989249959478,
            13.275630069148487,
            14.68586656661557,
            24.256749228415497,
            41.917310132294396,
            75.79224440614091,
            15.493691125202744,
            10.90634437983057,
            2.4007958106531904,
            5.658422771855009
        ],
        "timestamp": "2020-01-03T08:50:34"
    },
    {
        "id": "cr123",
        "step ": 1.0,
        "readings": [
            104.52658227457141,
            8.354952296529344,
            15.219805376657288,
            15.212888791339712,
            19.125177397415236,
            41.45461857068505,
            67.12533632365297,
            26.674994851509897,
            14.714568562911769,
            3.760463851787297,
            4.701296101621762
        ],
        "timestamp": "2020-01-03T20:26:29"
    },
    {
        "id": "cr123",
        "step ": 1.0,
        "readings": [
            101.33622395118586,
            14.149748329859674,
            17.09131756140913,
            20.45551050422277,
            18.547360139334906,
            36.58650339145516,
            78.57933479544569,
            27.338575483707537,
            13.786085315334274,
            1.5686218917334118,
            4.619925866832892
        ],
        "timestamp": "2020-01-04T00:45:10"
    },
    {
        "id": "cr123",
        "step ": 1.0,
        "readings": [
            97.82536892024837,
            26.381972657283743,
            29.543875909896293,
            20.589578316304205,
            16.719119599925925,
            41.37967906261311,
            82.5104941000056,
            34.8367937011501,
            9.942590526251696,
            5.569971581901529,
            1.5686218917334118
        ],
        "timestamp": "2020-01-04T09:07:34"
    },
    {
        "id": "cr121",
        "step ": 1.0,
        "readings": [
            103.04983414952939,
            13.06129559147759,
            11.423143599058566,
            15.192366557718543,
            15.072889387425104,
            42.76854392198215,
            83.85545790646066,
            32.14083956177737,
            10.187591211868611,
            1.3436639679184346,
            7.632806716877543
        ],
        "timestamp": "2020-01-04T19:07:34"
    },
    {
        "id": "cr123",
        "step ": 1.25,
        "readings": [
            99.69839490632394,
            10.68126766367177,
            10.118187195143484,
            20.5691678609613,
            15.798400748093648,
            39.282692849921105,
            84.65902014155832,
            34.41588673322045,
            14.778356922079697
        ],
        "timestamp": "2020-01-05T11:01:31"
    },
    {
        "id": "cr121",
        "step ": 1.25,
        "readings": [
            95.36459839582815,
            9.678450110740755,
            17.81878273614188,
            11.899504244408122,
            24.789056908523534,
            37.003063408187295,
            77.23540784996338,
            31.73440179915699,
            12.677390314933401
        ],
        "timestamp": "2020-01-06T01:21:11"
    }
]